{
  "project_info": {
    "project_number": "377729061279",
    "firebase_url": "https://projetofinalpdm-2d2fa.firebaseio.com",
    "project_id": "projetofinalpdm-2d2fa",
    "storage_bucket": "projetofinalpdm-2d2fa.appspot.com"
  },
  "client": [
    {
      "client_info": {
        "mobilesdk_app_id": "1:377729061279:android:bfa7717a316f1b9d3fedaa",
        "android_client_info": {
          "package_name": "com.example.trabalhofinal"
        }
      },
      "oauth_client": [
        {
          "client_id": "377729061279-5l2f33ipdt7nmnauqpomhp5vcenuv9ci.apps.googleusercontent.com",
          "client_type": 1,
          "android_info": {
            "package_name": "com.example.trabalhofinal",
            "certificate_hash": "3411bab131945881612d89f09211d4fcfe7cc3ee"
          }
        },
        {
          "client_id": "377729061279-2h2iik96e4ue7t9is3mdb5s7n4i337ce.apps.googleusercontent.com",
          "client_type": 3
        }
      ],
      "api_key": [
        {
          "current_key": "AIzaSyCtF6tlroXDT8aZQqs7Bw8rPMvmjkbaMLk"
        }
      ],
      "services": {
        "appinvite_service": {
          "other_platform_oauth_client": [
            {
              "client_id": "377729061279-2h2iik96e4ue7t9is3mdb5s7n4i337ce.apps.googleusercontent.com",
              "client_type": 3
            }
          ]
        }
      }
    }
  ],
  "configuration_version": "1"
}